{
    "id": "1",
    "name": [
        {
            "use": "official",
            "text": "Dr. Lang Ádám",
            "family": "Lang",
            "given": [
                "Ádám"
            ],
            "prefix": [
                "Dr."
            ]
        },
        {
            "use": "username",
            "text": "langadi",
            "given": [
                "langadi"
            ]
        }
    ],
    "telecom": [
        {
            "system": "email",
            "value": "dradam@mintakorhaz.com",
            "use": "work"
        }
    ],
    "gender": "male",
    "birthDate": "1965-02-18",
    "address": [
        {
            "use": "work",
            "line": "Oskola u. 5.",
            "city": "Szeged",
            "state": "Csongrád",
            "postalCode": "6720",
            "country": "Hungary"
        }
    ],
    "active": true,
    "link": [
        {
            "target": "Practitioner/pr_1"
        }
    ],
    "extension": [
        {
            "url": "password",
            "valueString": "$2a$10$0Cn4dMmWnvs7MPIlQLv.6eFFpf7t3Qr7ZPcHsV5oDG0VcDooaSmb6"
        }
    ]
}