{
    "resourceType": "Questionnaire",
    "id": "ques_3",
    "meta": {
        "lastUpdated": "2018-09-05T11:13:45.000"
    },
    "status": "active",
    "item": [
        {
            "linkId": "1",
            "text": "A biztosított családneve",
            "type": "string",
            "isRequired": true
        },
        {
            "linkId": "2",
            "text": "A biztosított keresztneve",
            "type": "string",
            "isRequired": true
        },
        {
            "linkId": "3",
            "text": "A biztosított TAJ-száma",
            "type": "string",
            "isRequired": true
        },
        {
            "linkId": "4",
            "text": "A vizsgálatra vagy gyógykezelésre felkért szolgáltató neve",
            "type": "string",
            "isRequired": true
        },
        {
            "linkId": "5",
            "text": "A biztosított nevének előtagja",
            "type": "string",
            "isRequired": false
        },
        {
            "linkId": "6",
            "text": "A biztosított nevének utótagja",
            "type": "string",
            "isRequired": false
        },
        {
            "linkId": "7",
            "text": "Munkahelyének azonosítására szolgáló adat, megnevezése",
            "type": "string",
            "isRequired": false
        },
        {
            "linkId": "8",
            "text": "Munkahelyének azonosítására szolgáló kódja",
            "type": "string",
            "isRequired": false
        },
        {
            "linkId": "9",
            "text": "A beutaló orvos által végzett ellátást azonosító naplósorszám",
            "type": "string",
            "isRequired": false
        },
        {
            "linkId": "10",
            "text": "A beutaló diagnózis szöveges leírása, kódja, konzíliumi beutaló esetén a konkrét kérdés",
            "type": "string",
            "isRequired": false
        },
        {
            "linkId": "11",
            "text": "Annak megjelölése, hogy a beutalt biztosított tekintetében rendelkezik-e az adott szakellátás tekintetében a c) pont szerinti egészségügyi szolgáltató területi ellátási kötelezettséggel",
            "type": "string",
            "isRequired": false
        },
        {
            "linkId": "12",
            "text": "Nem engedélyköteles külföldön történő gyógykezelés esetén az igénybe venni kívánt beavatkozás OENO kódja",
            "type": "string",
            "isRequired": false
        },
        {
            "linkId": "13",
            "text": "(10a) *  Az Ebtv. 20. § (4) bekezdése szerinti esetben a beutalónak - a kötelező tartalmi elemein túl - tartalmaznia kell",
            "type": "group",
            "item": [
                {
                    "linkId": "13.1",
                    "text": "a) azt a tényt, hogy a beutaló orvos a biztosítottat a keresőképtelenségével összefüggő betegsége miatt soron kívül utalja be",
                    "type": "string",
                    "isRequired": false
                },
                {
                    "linkId": "13.2",
                    "text": "b) azt, hogy a biztosított keresőképtelensége ugyanazon betegségből adódóan folyamatosan hány napja áll fenn",
                    "type": "string",
                    "isRequired": false
                },
                {
                    "linkId": "13.3",
                    "text": "c) a biztosított táppénzes naplószáma",
                    "type": "string",
                    "isRequired": false
                }
            ]
        }
    ]
}