{
    "resourceType": "DiagnosticReport",
    "id": "drep_1",
    "meta": {
        "lastUpdated": "2014-01-31T21:11:05.000"
    },
    "basedOn": [
        {
            "reference": "ReferralRequest/refreq_1"
        }
    ],
    "status": "registered | partial | preliminary | final +",
    "code": {
        "coding": [
            {
                "system": "http://loinc.org",
                "code": "80778-4",
                "display": "Otolaryngology Plan of care note"
            }
        ]
    },
    "subject": {
        "reference": "Patient/pat_1"
    },
    "effectiveDateTime": "<dateTime>",
    "issued": "<instant>(date)",
    "performer": [
        {
            "actor": {
                "reference": "Practitioner/pr_2"
            }
        }
    ],
    "result": [
        {
            "reference": "Observation/obs_1"
        }
    ],
    "conclusion": "<string>"
}