{
    "resourceType": "Questionnaire",
    "id": "ques_1",
    "meta": {
        "lastUpdated": "2014-01-31T21:11:05.000"
    },
    "status": "draft | active | retired | unknown",
    "code": [
        {
          "system": "http://example.org/system/code/lifelines/nl",
          "code": "VL 1-1, 18-65_1.2.2",
          "display": "Lifelines Questionnaire 1 part 1"
        }
      ],
    "item": [
        {
            "linkId": "<string>1",
            "text": "<string>",
            "type": "<group>",
            "item": [
                {
                    "linkId": "<string>1.1",
                    "text": "<string>",
                    "type": "<group | display | boolean | decimal | integer | date | dateTime +>"
                }
            ]
        }
    ]
}