{
    "resourceType": "Observation",
    "id": "obs_1",
    "meta": {
        "lastUpdated": "2014-01-31T21:11:05.000"
    },
    "basedOn": [
        {
            "reference": "ReferralRequest/refreq_1"
        }
    ],
    "status": "final",
    "code": {
        "coding": [
            {
                "system": "http://loinc.org",
                "code": "78575-8",
                "display": "Otolaryngology Diagnostic study note"
            }
        ]
    },
    "subject": [
        {
            "reference": "Patient/pat_1"
        }
    ],
    "issued": "2018-08-23T15:27:43.213Z",
    "performer": [
        {
            "reference": "Practitioner/pr_2"
        }
    ],
    "text": "ear",
    "component": [
        {
            "code": {
                "coding": [
                    {
                        "system": "http://loinc.org",
                        "code": "32419-4",
                        "display": "Pain quality"
                    },
                    {
                        "system": "http://loinc.org",
                        "code": "38201-0",
                        "display": "Pain onset [Date and time]"
                    }
                ]
            },
            "valueString": "fül fájdalom: intenzitása: 1, kezdete: 3 napja, irradiációs jelleg: nincs/"
        },
        {
            "code": {
                "coding": [
                    {
                        "system": "http://loinc.org",
                        "code": "8310-5",
                        "display": "Body temperature"
                    }
                ]
            },
            "valueString": "láz: mérték: 38,5°C/"
        },
        {
            "code": {
                "coding": [
                    {
                        "system": "http://loinc.org",
                        "code": "8698-3",
                        "display": "Physical findings of Ear"
                    },
                    {
                        "system": "http://loinc.org",
                        "code": "33512-5",
                        "display": "Color of Unspecified specimen"
                    },
                    {
                        "system": "http://loinc.org",
                        "code": "57900-3",
                        "display": "Age of Unspecified specimen"
                    }
                ]
            },
            "valueString": "fülfolyás: színe: áttetsző/színtelen, konzisztenciája: mucosus, kezdete: 1 napja/"
        },
        {
            "code": {
                "coding": [
                    {
                        "system": "http://loinc.org",
                        "code": "70451-0",
                        "display": "I am bothered by itching in past 7 days"
                    }
                ]
            },
            "valueString": "fülviszketés /"
        },
        {
            "code": {
                "coding": [
                    {
                        "system": "http://loinc.org",
                        "code": "32437-6",
                        "display": "Physical findings of Hearing"
                    }
                ]
            },
            "valueString": "halláscsökkenés /"
        },
        {
            "code": {
                "coding": [
                    {
                        "system": "http://loinc.org",
                        "code": "45685-5",
                        "display": "Respiratory infection [Minimum Data Set]"
                    },
                    {
                        "system": "http://loinc.org",
                        "code": "28124-6",
                        "display": "Infection [CCC]"
                    }
                ]
            },
            "valueString": "felső léguti infectio /"
        },
        {
            "code": {
                "coding": [
                    {
                        "system": "http://loinc.org",
                        "code": "8698-3",
                        "display": "Physical findings of Ear"
                    }
                ]
            },
            "valueString": "Retroauricularis fájdalom, duzzanat /"
        },
        {
            "code": {
                "coding": [
                    {
                        "system": "http://loinc.org",
                        "code": "45699-6",
                        "display": "Dizziness or vertigo"
                    }
                ]
            },
            "valueString": "szédülés /"
        },
        {
            "code": {
                "coding": [
                    {
                        "system": "http://loinc.org",
                        "code": "46686-2",
                        "display": "Noise [RFC]"
                    }
                ]
            },
            "valueString": "fülzúgás: helye(oldal): mindkettő/"
        },
        {
            "code": {
                "coding": [
                    {
                        "system": "http://loinc.org",
                        "code": "80326-2",
                        "display": "Paralysis [Type]"
                    }
                ]
            },
            "valueString": "aricegbénulás /"
        },
        {
            "code": {
                "coding": [
                    {
                        "system": "http://loinc.org",
                        "code": "34817-7",
                        "display": "Otolaryngology Note"
                    },
                    {
                        "system": "http://loinc.org",
                        "code": "34818-5",
                        "display": "Otolaryngology Surgical operation note"
                    },
                    {
                        "system": "http://loinc.org",
                        "code": "8723-9",
                        "display": "Surgical operation note date"
                    }
                ]
            },
            "valueString": "műtét: Muteti elozmeny,műtét dátuma: 2018-8-23/terápia: Terapia elozmeny,terápia kezdete: Nincs megadva./egyéb kórelőzmény: Egyeb elozmeny,kezdete: 2005-6-30,egyéb kórelőzmény: Masik egyeb elozmeny,kezdete: 1970-1-1,/"
        },
        {
            "code": {
                "coding": [
                    {
                        "system": "http://loinc.org",
                        "code": "34817-7",
                        "display": "Otolaryngology Note"
                    }
                ]
            },
            "valueString": "Gennyes középfülgyulladás"
        },
        {
            "code": {
                "coding": [
                    {
                        "system": "http://loinc.org",
                        "code": "34817-7",
                        "display": "Otolaryngology Note"
                    }
                ]
            },
            "valueString": "otitis externa"
        },
        {
            "code": {
                "coding": [
                    {
                        "system": "http://loinc.org",
                        "code": "34817-7",
                        "display": "Otolaryngology Note"
                    }
                ]
            },
            "valueString": "időskori siketedés"
        },
        {
            "code": {
                "coding": [
                    {
                        "system": "http://loinc.org",
                        "code": "18748-4",
                        "display": "Diagnostic imaging study"
                    }
                ]
            },
            "valueAttachment": {
                "contentType": "MIME",
                "url": "http://localhost:3001/api/containers/container1/download/test-pic.jpg"
            }
        },
        {
            "code": {
                "coding": [
                    {
                        "system": "http://loinc.org",
                        "code": "18748-4",
                        "display": "Diagnostic imaging study"
                    }
                ]
            },
            "valueAttachment": {
                "contentType": "MIME",
                "url": "http://localhost:3001/api/containers/container1/download/test-pic1.jpg"
            }
        },
        {
            "code": {
                "coding": [
                    {
                        "system": "http://loinc.org",
                        "code": "18748-4",
                        "display": "Diagnostic imaging study"
                    }
                ]
            },
            "valueAttachment": {
                "contentType": "MIME",
                "url": "http://localhost:3001/api/containers/container1/download/test-video.mov"
            }
        },
        {
            "code": {
                "coding": [
                    {
                        "system": "http://loinc.org",
                        "code": "18748-4",
                        "display": "Diagnostic imaging study"
                    }
                ]
            },
            "valueAttachment": {
                "contentType": "MIME",
                "url": "http://localhost:3001/api/containers/container1/download/test-video1.mov"
            }
        },
        {
            "code": {
                "coding": [
                    {
                        "system": "http://loinc.org",
                        "code": "34817-7",
                        "display": "Otolaryngology Note"
                    }
                ]
            },
            "valueString": "Elso megj.,Masodik megj."
        }
    ]
}