{
  "name": "Patient",
  "base": "Model",
  "idInjection": false,
  "options": {
    "validateUpsert": true
  },
  "properties": {
    "resource_name": {
      "type": "string"
    },
    "number_id": {
      "type": "number"
    },
    "version": {
      "type": "number"
    },
    "resource_type": {
      "type": "string"
    },
    "state": {
      "type": "string"
    },
    "lastupdated": {
      "type": "string"
    },
    "format": {
      "type": "string"
    },
    "author": {
      "type": "string"
    },
    "content": {
      "type": "string"
    }
  },
  "validations": [],
  "relations": {},
  "acls": [],
  "methods": {}
}
