{
  "_meta": {
    "sources": [
      "loopback/common/models",
      "loopback/server/models",
      "../common/models",
      "./models"
    ],
    "mixins": [
      "loopback/common/mixins",
      "loopback/server/mixins",
      "../common/mixins",
      "./mixins"
    ]
  },
  "Email": {
    "dataSource": "myEmailDataSource",
    "public": false
  },
  "User": {
    "dataSource": "db"
  },
  "AccessToken": {
    "dataSource": "db",
    "public": false
  },
  "ACL": {
    "dataSource": "db",
    "public": false
  },
  "RoleMapping": {
    "dataSource": "db",
    "public": false,
    "options": {
      "strictObjectIDCoercion": true
    }
  },
  "Role": {
    "dataSource": "db",
    "public": false
  },
  "Observation": {
    "dataSource": "cassandra",
    "public": true
  },
  "Patient": {
    "dataSource": "cassandra",
    "public": true
  },
  "Practitioner": {
    "dataSource": "cassandra",
    "public": true
  },
  "ReferralRequest": {
    "dataSource": "cassandra",
    "public": true
  },
  "Questionnaire": {
    "dataSource": "cassandra",
    "public": true
  },
  "QuestionnaireResponse": {
    "dataSource": "cassandra",
    "public": true
  },
  "DiagnosticReport": {
    "dataSource": "cassandra",
    "public": true
  },
  "Measurement": {
    "dataSource": "db",
    "public": false
  },
  "container": {
    "dataSource": "storage",
    "public": true
  }
}