{
    "resource_name": "qres",
    "number_id": "100",
    "author": "pr_1",
    "content": "{\"resourceType\":\"QuestionnaireResponse\",\"id\":\"qres_100\",\"meta\":{\"lastUpdated\":\"2014-01-31T21:11:05.000\"},\"basedOn\":[{\"reference\":\"ReferralRequest/rreq_1\"}],\"questionnaire\":{\"reference\":\"Questionnnarie/ques_1\"},\"status\":\"in-progress\",\"authored\":\"2014-01-31T21:11:05.000\",\"author\":{\"reference\":\"Patient/pat_1\"},\"source\":{\"reference\":\"Practitioner/pr_1\"},\"item\":[{\"linkIdv\":\"1\",\"item\":[{\"linkId\":\"1.1\",\"text\":\"Biztosított neve\",\"answer\":[{\"valueString\":\"Szabó Ákos\"}]},{\"linkId\":\"1.2\",\"text\":\"Biztosított TAJ-száma\",\"answer\":[{\"valueString\":\"789-456-123\"}]},{\"linkId\":\"1.3\",\"text\":\"Biztosított táppénzes naplószáma\",\"answer\":[{\"valueString\":\"123-456-789\"}]}]}]}",
    "format": "json",
    "lastupdated": "2018-07-26T10:06:54.708Z",
    "resource_type": "QuestionnarieResponse",
    "state": "active",
    "version": 1
}