{
    "resource_name": "rreq",
    "number_id": 100,
    "version": 1,
    "author": "pr_1",
    "content": "{\"resourceType\":\"ReferralRequest\",\"id\":\"rreq_100\",\"meta\":{\"lastUpdated\":\"2014-01-31T21:11:05.000\"},\"basedOn\":[{\"reference\":\"ReferralRequest/rreq_5\"}],\"replaces\":[{\"reference\":\"ReferralRequest/rreq_3\"}],\"status\":\"active\",\"intent\":\"proposal\",\"subject\":{\"reference\":\"Patient/pat_1\"},\"occurrenceDateTime\":\"2018-06-26T21:11:05.000\",\"authoredOn\":\"2018-04-26T21:11:05.000\",\"requester\":{\"agent\":{\"reference\":\"Practitioner/pr_1\"},\"onBehalfOf\":{\"reference\":\"Organization/org_1\"}},\"recipient\":[{\"reference\":\"Practitioner/pr_2\"}],\"reasonReference\":[{\"reference\":\"Observation/obs_1\"}],\"description\":\"A beteg fülfájásra panaszkodik. Sárga szinű folyadék látható a fül felületén.\",\"priority\":\"1\"}",
    "format": "json",
    "lastupdated": "1970-01-01T04:14:20.433Z",
    "resource_type": "ReferralRequest",
    "state": "active"
}